<svg width="24" height="24" viewBox="0 0 24 24" fill="none" xmlns="http://www.w3.org/2000/svg">
<g clip-path="url(#clip0)">
<path d="M21.7508 10.2891L4.20387 0.258971C3.90135 0.0861714 3.56455 0 3.22775 0C3.2209 0 3.21415 0.000914286 3.20741 0.000914286C3.16215 0.00137143 3.11701 0.00365714 3.07198 0.0072C3.05164 0.0088 3.03141 0.0109714 3.01107 0.0132571C2.97587 0.0171429 2.94078 0.0220571 2.90581 0.0278857C2.89313 0.0300571 2.88033 0.0307429 2.86764 0.0331429L2.86833 0.0340571C2.6497 0.0744 2.43633 0.151429 2.23804 0.266514C1.63073 0.618857 1.2569 1.26789 1.2569 1.96994V22.0302C1.2569 22.7322 1.63073 23.3813 2.23804 23.7336C2.43621 23.8487 2.64958 23.9258 2.86821 23.9662L2.86764 23.967C2.87907 23.9691 2.89061 23.9698 2.90193 23.9717C2.93953 23.9781 2.97724 23.9833 3.01507 23.9873C3.03404 23.9894 3.0529 23.9914 3.07187 23.9929C3.11633 23.9965 3.16067 23.9985 3.20524 23.9991C3.21278 23.9992 3.22021 24.0001 3.22775 24.0001C3.56455 24.0001 3.90135 23.9139 4.20387 23.7411L21.7508 13.7109C22.3643 13.3601 22.743 12.7078 22.743 12.0009C22.743 12.0009 22.743 12.0006 22.743 12.0005C22.743 12.0005 22.743 12.0001 22.743 12C22.743 12 22.743 11.9997 22.743 11.9995C22.743 11.9995 22.743 11.9992 22.743 11.9991C22.743 11.2923 22.3643 10.64 21.7508 10.2891ZM14.8116 8.29726L13.067 10.5861L8.6281 4.76251L14.8116 8.29726ZM20.9001 12.2225L8.6281 19.2375L16.312 9.1568L20.9 11.7793C20.9794 11.8247 21.0288 11.9097 21.0288 12.0008C21.0287 12.0922 20.9793 12.1773 20.9001 12.2225Z" fill="white"/>
</g>
<defs>
<clipPath id="clip0">
<rect width="24" height="24" fill="white"/>
</clipPath>
</defs>
</svg>
