<svg width="42" height="42" viewBox="0 0 42 42" fill="none" xmlns="http://www.w3.org/2000/svg">
<rect x="1" y="0.999023" width="40" height="40" rx="4" fill="#64C8BC" stroke="#64C8BC"/>
<path fill-rule="evenodd" clip-rule="evenodd" d="M27 15.999C27 19.3127 24.3137 21.999 21 21.999C17.6863 21.999 15 19.3127 15 15.999C15 12.6853 17.6863 9.99902 21 9.99902C24.3137 9.99902 27 12.6853 27 15.999ZM25 15.999C25 18.2082 23.2092 19.999 21 19.999C18.7909 19.999 17 18.2082 17 15.999C17 13.7899 18.7909 11.999 21 11.999C23.2092 11.999 25 13.7899 25 15.999Z" fill="white"/>
<path d="M13.3972 28.4876C13.7253 27.7687 14.3281 26.9162 15.4613 26.2347C16.6007 25.5496 18.3403 24.999 21.0001 24.999C21.5524 24.999 22.0001 24.5513 22.0001 23.999C22.0001 23.4467 21.5524 22.999 21.0001 22.999C18.0649 22.999 15.9487 23.6079 14.4306 24.5208C12.9065 25.4373 12.0505 26.6215 11.5777 27.6571C11.1792 28.5301 11.3606 29.4198 11.89 30.0536C12.3947 30.6578 13.1794 30.999 14.0001 30.999H21C21.5523 30.999 22 30.5513 22 29.999C22 29.4467 21.5523 28.999 21 28.999H14.0001C13.7161 28.999 13.5152 28.8794 13.425 28.7714C13.383 28.7212 13.3684 28.6794 13.364 28.6496C13.3601 28.6236 13.3584 28.5725 13.3972 28.4876Z" fill="white"/>
<path d="M27 22.999C27.5523 22.999 28 23.4467 28 23.999V25.999L30 25.999C30.5523 25.999 31 26.4467 31 26.999C31 27.5513 30.5523 27.999 30 27.999L28 27.9989V29.999C28 30.5513 27.5523 30.999 27 30.999C26.4477 30.999 26 30.5513 26 29.999V27.9989L24 27.9989C23.4477 27.9988 23 27.5511 23 26.9988C23 26.4465 23.4478 25.9988 24 25.9989L26 25.9989V23.999C26 23.4467 26.4477 22.999 27 22.999Z" fill="white"/>
</svg>
