<svg width="24" height="24" viewBox="0 0 24 24" fill="none" xmlns="http://www.w3.org/2000/svg">
<path fill-rule="evenodd" clip-rule="evenodd" d="M17.5616 20.9997C17.4036 20.9997 17.2446 20.9627 17.0986 20.8867L11.9996 18.2227L6.90159 20.8867C6.56359 21.0617 6.15559 21.0317 5.84959 20.8077C5.54159 20.5837 5.38859 20.2047 5.45359 19.8297L6.42459 14.2017L2.30459 10.2167C2.03059 9.95168 1.93159 9.55368 2.04859 9.18968C2.16559 8.82768 2.47859 8.56268 2.85659 8.50868L8.55659 7.68068L11.1046 2.55468C11.4426 1.87468 12.5576 1.87468 12.8956 2.55468L15.4436 7.68068L21.1436 8.50868C21.5216 8.56268 21.8346 8.82768 21.9516 9.18968C22.0686 9.55368 21.9696 9.95168 21.6956 10.2167L17.5756 14.2017L18.5466 19.8297C18.6116 20.2047 18.4576 20.5837 18.1506 20.8077C17.9766 20.9357 17.7696 20.9997 17.5616 20.9997Z" fill="#D5D5DC"/>
</svg>
